…
adjusted_OR_df
```

    ## # A tibble: 47 × 4
    ##    city_state      adjusted_OR_estimate adjusted_OR_low adjusted_OR_high
    ##    <chr>                          <dbl>           <dbl>            <dbl>
    ##  1 Albuquerque, NM                1.77            0.831            3.76 
    ##  2 Atlanta, GA                    1.00            0.684            1.46 
    ##  3 Baltimore, MD                  0.426           0.325            0.558
    ##  4 Baton Rouge, LA                0.381           0.209            0.695
    ##  5 Birmingham, AL                 0.870           0.574            1.32 
    ##  6 Boston, MA                     0.667           0.354            1.26 
    ##  7 Buffalo, NY                    0.521           0.290            0.935
    ##  8 Charlotte, NC                  0.884           0.557            1.40 
    ##  9 Chicago, IL                    0.410           0.336            0.501
    ## 10 Cincinnati, OH                 0.400           0.236            0.677
    ## # … with 37 more rows
